{
  "kind": "collectionType",
  "collectionName": "events",
  "info": {
    "name": "Event"
  },
  "options": {
    "increments": true,
    "timestamps": true
  },
  "attributes": {
    "date_of_event": {
      "type": "date"
    },
    "time_of_event": {
      "type": "time"
    },
    "description_of_event": {
      "type": "text"
    }
  }
}
