{
  "kind": "collectionType",
  "collectionName": "my_animals",
  "info": {
    "name": "MyAnimal"
  },
  "options": {
    "increments": true,
    "timestamps": true
  },
  "attributes": {
    "name": {
      "type": "string"
    },
    "date_of_birth": {
      "type": "date"
    },
    "age": {
      "type": "integer"
    },
    "race": {
      "type": "string"
    },
    "animal_color": {
      "type": "string"
    },
    "vaccine": {
      "type": "boolean"
    },
    "tatoo": {
      "type": "boolean"
    },
    "possible_allergy": {
      "type": "text"
    },
    "possible_health_problem": {
      "type": "text"
    },
    "possible_medical_treatment": {
      "type": "text"
    },
    "favorite_food": {
      "type": "text"
    },
    "favorite_game": {
      "type": "text"
    },
    "free_note": {
      "type": "text"
    },
    "animal_photo": {
      "model": "file",
      "via": "related",
      "allowedTypes": [
        "images",
        "files",
        "videos"
      ],
      "plugin": "upload",
      "required": false
    },
    "identifying_logo": {
      "collection": "file",
      "via": "related",
      "allowedTypes": [
        "images",
        "files",
        "videos"
      ],
      "plugin": "upload",
      "required": false
    },
    "member": {
      "model": "member",
      "via": "my_animals"
    }
  }
}
